…
``` r
# How many RH variants for each RE come from each data source 
# (binned, enrichment, or model)?
meanF_data %>%
  filter(functional) %>%
  mutate(type = replace(as.character(type), type == "debulk", "enrichment")) %>%
  group_by(bg, RE) %>%
  count(type) %>%
  mutate(proportion = n / sum(n))
```

    ## # A tibble: 49 × 5
    ## # Groups:   bg, RE [25]
    ##    bg     RE       type          n proportion
    ##    <chr>  <fct>    <chr>     <int>      <dbl>
    ##  1 AncSR1 ERE (GT) binned       29      0.592
    ##  2 AncSR1 ERE (GT) predicted    20      0.408
    ##  3 AncSR1 SRE (AA) binned       17      0.739
    ##  4 AncSR1 SRE (AA) predicted     6      0.261
    ##  5 AncSR1 AC       binned        2      1    
    ##  6 AncSR1 AT       binned       17      0.773
    ##  7 AncSR1 AT       predicted     5      0.227
    ##  8 AncSR1 CA       binned        5      1    
    ##  9 AncSR1 GA       binned        2      0.133
    ## 10 AncSR1 GA       predicted    13      0.867
    ## # ℹ 39 more rows
…
